%YAML 1.1
%TAG !u! tag:unity3d.com,2011:
--- !u!114 &11400000
MonoBehaviour:
  m_ObjectHideFlags: 0
  m_PrefabParentObject: {fileID: 0}
  m_PrefabInternal: {fileID: 0}
  m_GameObject: {fileID: 0}
  m_Enabled: 1
  m_EditorHideFlags: 0
  m_Script: {fileID: 0}
  m_Name: sheet
  m_EditorClassIdentifier: Assembly-CSharp:RPGCore.Traits:TraitSetTemplate
  template:
    Traits:
    - name: Strength
      value: 0
    - name: Agility
      value: 0
    - name: Intelligence
      value: 0
    - name: Durability
      value: 0
    - name: Dexterity
      value: 0
    - name: Wisdom
      value: 0
