%YAML 1.1
%TAG !u! tag:unity3d.com,2011:
--- !u!114 &11400000
MonoBehaviour:
  m_ObjectHideFlags: 0
  m_PrefabParentObject: {fileID: 0}
  m_PrefabInternal: {fileID: 0}
  m_GameObject: {fileID: 0}
  m_Enabled: 1
  m_EditorHideFlags: 0
  m_Script: {fileID: 0}
  m_Name: trg
  m_EditorClassIdentifier: Assembly-CSharp:RPGCore.Abilitys:Targeting
  MinimumRange: 0
  MaximumRange: 0
  count: 0
  piercing: 0
  StartingPoint:
    x: 0
    y: 0
    z: 0
  EndPoint:
    x: 0
    y: 0
    z: 0
